9
p123;E;Security Software;1000.00
p567;C;Server Maintenance;person9;200.00
p234;L;Commercial License;50.00;500.00
p678;E;Antivirus Software;599.00
p999;L;Private License;100.00;150.00
p345;E;Database Manager;2500.00
p789;C;Software Installation;person10;100.00
p456;C;Troubleshooting;person11;79.99
p888;C;Server Setup;person12;50.00